<svg width="286" height="234" viewBox="0 0 286 234" fill="none" xmlns="http://www.w3.org/2000/svg">
<g filter="url(#filter0_d)">
<path d="M4 24C4 10.7452 14.7452 0 28 0H282V226H28C14.7452 226 4 215.255 4 202V24Z" fill="#DEDEDE"/>
</g>
<g filter="url(#filter1_d)">
<path d="M4 140H282V226H28C14.7452 226 4 215.255 4 202V140Z" fill="#3778A8"/>
</g>
<path d="M128.202 31.4316C128.202 32.5918 127.783 33.5059 126.945 34.1738C126.113 34.8418 124.953 35.1758 123.465 35.1758C122.094 35.1758 120.881 34.918 119.826 34.4023V31.8711C120.693 32.2578 121.426 32.5303 122.023 32.6885C122.627 32.8467 123.178 32.9258 123.676 32.9258C124.273 32.9258 124.73 32.8115 125.047 32.583C125.369 32.3545 125.53 32.0146 125.53 31.5635C125.53 31.3115 125.46 31.0889 125.319 30.8955C125.179 30.6963 124.971 30.5059 124.695 30.3242C124.426 30.1426 123.872 29.8525 123.034 29.4541C122.249 29.085 121.66 28.7305 121.268 28.3906C120.875 28.0508 120.562 27.6553 120.327 27.2041C120.093 26.7529 119.976 26.2256 119.976 25.6221C119.976 24.4854 120.359 23.5918 121.127 22.9414C121.9 22.291 122.967 21.9658 124.326 21.9658C124.994 21.9658 125.63 22.0449 126.233 22.2031C126.843 22.3613 127.479 22.584 128.141 22.8711L127.262 24.9893C126.576 24.708 126.008 24.5117 125.557 24.4004C125.111 24.2891 124.672 24.2334 124.238 24.2334C123.723 24.2334 123.327 24.3535 123.052 24.5938C122.776 24.834 122.639 25.1475 122.639 25.5342C122.639 25.7744 122.694 25.9854 122.806 26.167C122.917 26.3428 123.093 26.5156 123.333 26.6855C123.579 26.8496 124.156 27.1484 125.064 27.582C126.266 28.1562 127.089 28.7334 127.534 29.3135C127.979 29.8877 128.202 30.5938 128.202 31.4316ZM135.972 35L132.878 24.9189H132.799C132.91 26.9697 132.966 28.3379 132.966 29.0234V35H130.531V22.1504H134.24L137.281 31.9766H137.334L140.56 22.1504H144.269V35H141.729V28.918C141.729 28.6309 141.731 28.2998 141.737 27.9248C141.749 27.5498 141.79 26.5537 141.86 24.9365H141.781L138.468 35H135.972ZM155.378 35L154.446 31.9414H149.762L148.83 35H145.895L150.43 22.0977H153.761L158.313 35H155.378ZM153.796 29.6562C152.935 26.8848 152.448 25.3174 152.337 24.9541C152.231 24.5908 152.155 24.3037 152.108 24.0928C151.915 24.8428 151.361 26.6973 150.447 29.6562H153.796ZM176.015 35H172.552L166.962 25.2793H166.883C166.994 26.9961 167.05 28.2207 167.05 28.9531V35H164.615V22.1504H168.052L173.633 31.7744H173.694C173.606 30.1045 173.562 28.9238 173.562 28.2324V22.1504H176.015V35ZM183.116 26.8965C182.548 26.8965 182.103 27.0781 181.78 27.4414C181.458 27.7988 181.273 28.3086 181.227 28.9707H184.988C184.977 28.3086 184.804 27.7988 184.47 27.4414C184.136 27.0781 183.685 26.8965 183.116 26.8965ZM183.494 35.1758C181.912 35.1758 180.676 34.7393 179.785 33.8662C178.895 32.9932 178.449 31.7568 178.449 30.1572C178.449 28.5107 178.859 27.2393 179.68 26.3428C180.506 25.4404 181.646 24.9893 183.099 24.9893C184.487 24.9893 185.568 25.3848 186.342 26.1758C187.115 26.9668 187.502 28.0596 187.502 29.4541V30.7549H181.165C181.194 31.5166 181.42 32.1113 181.842 32.5391C182.264 32.9668 182.855 33.1807 183.617 33.1807C184.209 33.1807 184.769 33.1191 185.296 32.9961C185.823 32.873 186.374 32.6768 186.948 32.4072V34.4814C186.479 34.7158 185.979 34.8887 185.445 35C184.912 35.1172 184.262 35.1758 183.494 35.1758ZM198.233 25.1738V26.5361L196.695 26.9316C196.977 27.3711 197.117 27.8633 197.117 28.4082C197.117 29.4629 196.748 30.2861 196.01 30.8779C195.277 31.4639 194.258 31.7568 192.951 31.7568L192.468 31.7305L192.072 31.6865C191.797 31.8975 191.659 32.1318 191.659 32.3896C191.659 32.7764 192.151 32.9697 193.136 32.9697H194.806C195.884 32.9697 196.704 33.2012 197.267 33.6641C197.835 34.127 198.119 34.8066 198.119 35.7031C198.119 36.8516 197.639 37.7422 196.678 38.375C195.723 39.0078 194.349 39.3242 192.556 39.3242C191.185 39.3242 190.136 39.084 189.409 38.6035C188.688 38.1289 188.328 37.4609 188.328 36.5996C188.328 36.0078 188.513 35.5127 188.882 35.1143C189.251 34.7158 189.793 34.4316 190.508 34.2617C190.232 34.1445 189.992 33.9541 189.787 33.6904C189.582 33.4209 189.479 33.1367 189.479 32.8379C189.479 32.4629 189.588 32.1523 189.805 31.9062C190.021 31.6543 190.335 31.4082 190.745 31.168C190.229 30.9453 189.819 30.5879 189.515 30.0957C189.216 29.6035 189.066 29.0234 189.066 28.3555C189.066 27.2832 189.415 26.4541 190.112 25.8682C190.81 25.2822 191.806 24.9893 193.101 24.9893C193.376 24.9893 193.701 25.0156 194.076 25.0684C194.457 25.1152 194.7 25.1504 194.806 25.1738H198.233ZM190.648 36.3887C190.648 36.7578 190.824 37.0479 191.176 37.2588C191.533 37.4697 192.031 37.5752 192.67 37.5752C193.631 37.5752 194.384 37.4434 194.929 37.1797C195.474 36.916 195.746 36.5557 195.746 36.0986C195.746 35.7295 195.585 35.4746 195.263 35.334C194.94 35.1934 194.442 35.123 193.769 35.123H192.38C191.888 35.123 191.475 35.2373 191.141 35.4658C190.812 35.7002 190.648 36.0078 190.648 36.3887ZM191.624 28.3906C191.624 28.9238 191.744 29.3457 191.984 29.6562C192.23 29.9668 192.603 30.1221 193.101 30.1221C193.604 30.1221 193.974 29.9668 194.208 29.6562C194.442 29.3457 194.56 28.9238 194.56 28.3906C194.56 27.207 194.073 26.6152 193.101 26.6152C192.116 26.6152 191.624 27.207 191.624 28.3906ZM203.929 26.8965C203.36 26.8965 202.915 27.0781 202.593 27.4414C202.271 27.7988 202.086 28.3086 202.039 28.9707H205.801C205.789 28.3086 205.616 27.7988 205.282 27.4414C204.948 27.0781 204.497 26.8965 203.929 26.8965ZM204.307 35.1758C202.725 35.1758 201.488 34.7393 200.598 33.8662C199.707 32.9932 199.262 31.7568 199.262 30.1572C199.262 28.5107 199.672 27.2393 200.492 26.3428C201.318 25.4404 202.458 24.9893 203.911 24.9893C205.3 24.9893 206.381 25.3848 207.154 26.1758C207.928 26.9668 208.314 28.0596 208.314 29.4541V30.7549H201.978C202.007 31.5166 202.232 32.1113 202.654 32.5391C203.076 32.9668 203.668 33.1807 204.43 33.1807C205.021 33.1807 205.581 33.1191 206.108 32.9961C206.636 32.873 207.187 32.6768 207.761 32.4072V34.4814C207.292 34.7158 206.791 34.8887 206.258 35C205.725 35.1172 205.074 35.1758 204.307 35.1758ZM215.979 24.9893C216.342 24.9893 216.644 25.0156 216.884 25.0684L216.682 27.582C216.465 27.5234 216.201 27.4941 215.891 27.4941C215.035 27.4941 214.367 27.7139 213.887 28.1533C213.412 28.5928 213.175 29.208 213.175 29.999V35H210.494V25.1738H212.524L212.92 26.8262H213.052C213.356 26.2754 213.767 25.833 214.282 25.499C214.804 25.1592 215.369 24.9893 215.979 24.9893ZM218.554 22.6338C218.554 21.7607 219.04 21.3242 220.013 21.3242C220.985 21.3242 221.472 21.7607 221.472 22.6338C221.472 23.0498 221.349 23.375 221.103 23.6094C220.862 23.8379 220.499 23.9521 220.013 23.9521C219.04 23.9521 218.554 23.5127 218.554 22.6338ZM221.349 35H218.668V25.1738H221.349V35ZM234.875 35H232.159V27.5645L232.186 26.3428L232.229 25.0068C231.778 25.458 231.465 25.7539 231.289 25.8945L229.812 27.0811L228.503 25.4463L232.643 22.1504H234.875V35ZM130.953 60H127.859L124.493 54.5859L123.342 55.4121V60H120.617V47.1504H123.342V53.0303L124.414 51.5186L127.895 47.1504H130.918L126.436 52.8369L130.953 60ZM134.495 55.0693C134.495 56.042 134.653 56.7773 134.97 57.2754C135.292 57.7734 135.813 58.0225 136.534 58.0225C137.249 58.0225 137.762 57.7764 138.072 57.2842C138.389 56.7861 138.547 56.0479 138.547 55.0693C138.547 54.0967 138.389 53.3672 138.072 52.8809C137.756 52.3945 137.237 52.1514 136.517 52.1514C135.802 52.1514 135.286 52.3945 134.97 52.8809C134.653 53.3613 134.495 54.0908 134.495 55.0693ZM141.289 55.0693C141.289 56.6689 140.867 57.9199 140.023 58.8223C139.18 59.7246 138.005 60.1758 136.499 60.1758C135.556 60.1758 134.724 59.9707 134.003 59.5605C133.282 59.1445 132.729 58.5498 132.342 57.7764C131.955 57.0029 131.762 56.1006 131.762 55.0693C131.762 53.4639 132.181 52.2158 133.019 51.3252C133.856 50.4346 135.034 49.9893 136.552 49.9893C137.495 49.9893 138.327 50.1943 139.048 50.6045C139.769 51.0146 140.322 51.6035 140.709 52.3711C141.096 53.1387 141.289 54.0381 141.289 55.0693ZM147.644 58.04C148.112 58.04 148.675 57.9375 149.331 57.7324V59.7275C148.663 60.0264 147.843 60.1758 146.87 60.1758C145.798 60.1758 145.016 59.9062 144.523 59.3672C144.037 58.8223 143.794 58.0078 143.794 56.9238V52.1865H142.511V51.0527L143.987 50.1562L144.761 48.082H146.475V50.1738H149.226V52.1865H146.475V56.9238C146.475 57.3047 146.58 57.5859 146.791 57.7676C147.008 57.9492 147.292 58.04 147.644 58.04ZM157.566 60L157.048 58.6641H156.978C156.526 59.2324 156.061 59.6279 155.58 59.8506C155.105 60.0674 154.484 60.1758 153.717 60.1758C152.773 60.1758 152.029 59.9062 151.484 59.3672C150.945 58.8281 150.676 58.0605 150.676 57.0645C150.676 56.0215 151.039 55.2539 151.766 54.7617C152.498 54.2637 153.6 53.9883 155.07 53.9355L156.775 53.8828V53.4521C156.775 52.4561 156.266 51.958 155.246 51.958C154.461 51.958 153.538 52.1953 152.478 52.6699L151.59 50.8594C152.721 50.2676 153.975 49.9717 155.352 49.9717C156.67 49.9717 157.681 50.2588 158.384 50.833C159.087 51.4072 159.438 52.2803 159.438 53.4521V60H157.566ZM156.775 55.4473L155.738 55.4824C154.959 55.5059 154.379 55.6465 153.998 55.9043C153.617 56.1621 153.427 56.5547 153.427 57.082C153.427 57.8379 153.86 58.2158 154.728 58.2158C155.349 58.2158 155.844 58.0371 156.213 57.6797C156.588 57.3223 156.775 56.8477 156.775 56.2559V55.4473ZM167.094 47.1504H171.093C172.915 47.1504 174.236 47.4111 175.057 47.9326C175.883 48.4482 176.296 49.2715 176.296 50.4023C176.296 51.1699 176.114 51.7998 175.751 52.292C175.394 52.7842 174.916 53.0801 174.318 53.1797V53.2676C175.133 53.4492 175.719 53.7891 176.076 54.2871C176.439 54.7852 176.621 55.4473 176.621 56.2734C176.621 57.4453 176.196 58.3594 175.347 59.0156C174.503 59.6719 173.354 60 171.901 60H167.094V47.1504ZM169.818 52.2393H171.4C172.139 52.2393 172.672 52.125 173 51.8965C173.334 51.668 173.501 51.29 173.501 50.7627C173.501 50.2705 173.319 49.9189 172.956 49.708C172.599 49.4912 172.03 49.3828 171.251 49.3828H169.818V52.2393ZM169.818 54.4014V57.75H171.594C172.344 57.75 172.897 57.6064 173.255 57.3193C173.612 57.0322 173.791 56.5928 173.791 56.001C173.791 54.9346 173.029 54.4014 171.506 54.4014H169.818ZM181.112 55.0693C181.112 56.042 181.271 56.7773 181.587 57.2754C181.909 57.7734 182.431 58.0225 183.151 58.0225C183.866 58.0225 184.379 57.7764 184.689 57.2842C185.006 56.7861 185.164 56.0479 185.164 55.0693C185.164 54.0967 185.006 53.3672 184.689 52.8809C184.373 52.3945 183.854 52.1514 183.134 52.1514C182.419 52.1514 181.903 52.3945 181.587 52.8809C181.271 53.3613 181.112 54.0908 181.112 55.0693ZM187.906 55.0693C187.906 56.6689 187.484 57.9199 186.641 58.8223C185.797 59.7246 184.622 60.1758 183.116 60.1758C182.173 60.1758 181.341 59.9707 180.62 59.5605C179.899 59.1445 179.346 58.5498 178.959 57.7764C178.572 57.0029 178.379 56.1006 178.379 55.0693C178.379 53.4639 178.798 52.2158 179.636 51.3252C180.474 50.4346 181.651 49.9893 183.169 49.9893C184.112 49.9893 184.944 50.1943 185.665 50.6045C186.386 51.0146 186.939 51.6035 187.326 52.3711C187.713 53.1387 187.906 54.0381 187.906 55.0693ZM198.673 50.1738V51.5361L197.135 51.9316C197.416 52.3711 197.557 52.8633 197.557 53.4082C197.557 54.4629 197.188 55.2861 196.449 55.8779C195.717 56.4639 194.697 56.7568 193.391 56.7568L192.907 56.7305L192.512 56.6865C192.236 56.8975 192.099 57.1318 192.099 57.3896C192.099 57.7764 192.591 57.9697 193.575 57.9697H195.245C196.323 57.9697 197.144 58.2012 197.706 58.6641C198.274 59.127 198.559 59.8066 198.559 60.7031C198.559 61.8516 198.078 62.7422 197.117 63.375C196.162 64.0078 194.788 64.3242 192.995 64.3242C191.624 64.3242 190.575 64.084 189.849 63.6035C189.128 63.1289 188.768 62.4609 188.768 61.5996C188.768 61.0078 188.952 60.5127 189.321 60.1143C189.69 59.7158 190.232 59.4316 190.947 59.2617C190.672 59.1445 190.432 58.9541 190.227 58.6904C190.021 58.4209 189.919 58.1367 189.919 57.8379C189.919 57.4629 190.027 57.1523 190.244 56.9062C190.461 56.6543 190.774 56.4082 191.185 56.168C190.669 55.9453 190.259 55.5879 189.954 55.0957C189.655 54.6035 189.506 54.0234 189.506 53.3555C189.506 52.2832 189.854 51.4541 190.552 50.8682C191.249 50.2822 192.245 49.9893 193.54 49.9893C193.815 49.9893 194.141 50.0156 194.516 50.0684C194.896 50.1152 195.14 50.1504 195.245 50.1738H198.673ZM191.088 61.3887C191.088 61.7578 191.264 62.0479 191.615 62.2588C191.973 62.4697 192.471 62.5752 193.109 62.5752C194.07 62.5752 194.823 62.4434 195.368 62.1797C195.913 61.916 196.186 61.5557 196.186 61.0986C196.186 60.7295 196.024 60.4746 195.702 60.334C195.38 60.1934 194.882 60.123 194.208 60.123H192.819C192.327 60.123 191.914 60.2373 191.58 60.4658C191.252 60.7002 191.088 61.0078 191.088 61.3887ZM192.063 53.3906C192.063 53.9238 192.184 54.3457 192.424 54.6562C192.67 54.9668 193.042 55.1221 193.54 55.1221C194.044 55.1221 194.413 54.9668 194.647 54.6562C194.882 54.3457 194.999 53.9238 194.999 53.3906C194.999 52.207 194.513 51.6152 193.54 51.6152C192.556 51.6152 192.063 52.207 192.063 53.3906ZM202.435 55.0693C202.435 56.042 202.593 56.7773 202.909 57.2754C203.231 57.7734 203.753 58.0225 204.474 58.0225C205.188 58.0225 205.701 57.7764 206.012 57.2842C206.328 56.7861 206.486 56.0479 206.486 55.0693C206.486 54.0967 206.328 53.3672 206.012 52.8809C205.695 52.3945 205.177 52.1514 204.456 52.1514C203.741 52.1514 203.226 52.3945 202.909 52.8809C202.593 53.3613 202.435 54.0908 202.435 55.0693ZM209.229 55.0693C209.229 56.6689 208.807 57.9199 207.963 58.8223C207.119 59.7246 205.944 60.1758 204.438 60.1758C203.495 60.1758 202.663 59.9707 201.942 59.5605C201.222 59.1445 200.668 58.5498 200.281 57.7764C199.895 57.0029 199.701 56.1006 199.701 55.0693C199.701 53.4639 200.12 52.2158 200.958 51.3252C201.796 50.4346 202.974 49.9893 204.491 49.9893C205.435 49.9893 206.267 50.1943 206.987 50.6045C207.708 51.0146 208.262 51.6035 208.648 52.3711C209.035 53.1387 209.229 54.0381 209.229 55.0693ZM216.928 49.9893C217.291 49.9893 217.593 50.0156 217.833 50.0684L217.631 52.582C217.414 52.5234 217.15 52.4941 216.84 52.4941C215.984 52.4941 215.316 52.7139 214.836 53.1533C214.361 53.5928 214.124 54.208 214.124 54.999V60H211.443V50.1738H213.474L213.869 51.8262H214.001C214.306 51.2754 214.716 50.833 215.231 50.499C215.753 50.1592 216.318 49.9893 216.928 49.9893Z" fill="#3778A8"/>
<path d="M40.9922 172H38.5791L37.2256 166.75C37.1755 166.563 37.0889 166.178 36.9658 165.595C36.8473 165.007 36.779 164.613 36.7607 164.412C36.7334 164.658 36.665 165.055 36.5557 165.602C36.4463 166.144 36.362 166.531 36.3027 166.764L34.9561 172H32.5498L30 162.006H32.085L33.3633 167.461C33.5866 168.468 33.7484 169.341 33.8486 170.079C33.876 169.819 33.9375 169.418 34.0332 168.876C34.1335 168.329 34.2269 167.905 34.3135 167.604L35.7695 162.006H37.7725L39.2285 167.604C39.2923 167.855 39.3721 168.238 39.4678 168.753C39.5635 169.268 39.6364 169.71 39.6865 170.079C39.7321 169.724 39.805 169.282 39.9053 168.753C40.0055 168.22 40.0967 167.789 40.1787 167.461L41.4502 162.006H43.5352L40.9922 172ZM44.793 172V162.006H46.9121V172H44.793ZM55.3271 169.225C55.3271 170.127 55.0013 170.838 54.3496 171.357C53.7025 171.877 52.8001 172.137 51.6426 172.137C50.5762 172.137 49.6328 171.936 48.8125 171.535V169.566C49.487 169.867 50.0566 170.079 50.5215 170.202C50.9909 170.325 51.4193 170.387 51.8066 170.387C52.2715 170.387 52.627 170.298 52.873 170.12C53.1237 169.942 53.249 169.678 53.249 169.327C53.249 169.131 53.1943 168.958 53.085 168.808C52.9756 168.653 52.8138 168.505 52.5996 168.363C52.39 168.222 51.9593 167.996 51.3076 167.687C50.6969 167.399 50.2389 167.124 49.9336 166.859C49.6283 166.595 49.3844 166.287 49.2021 165.937C49.0199 165.586 48.9287 165.175 48.9287 164.706C48.9287 163.822 49.2272 163.127 49.8242 162.621C50.4258 162.115 51.2552 161.862 52.3125 161.862C52.832 161.862 53.3265 161.924 53.7959 162.047C54.2699 162.17 54.7643 162.343 55.2793 162.566L54.5957 164.214C54.0625 163.995 53.6204 163.842 53.2695 163.756C52.9232 163.669 52.5814 163.626 52.2441 163.626C51.8431 163.626 51.5355 163.719 51.3213 163.906C51.1071 164.093 51 164.337 51 164.638C51 164.825 51.0433 164.989 51.1299 165.13C51.2165 165.267 51.3532 165.401 51.54 165.533C51.7314 165.661 52.1803 165.893 52.8867 166.23C53.821 166.677 54.4613 167.126 54.8076 167.577C55.154 168.024 55.3271 168.573 55.3271 169.225ZM65.3281 172H63.2158V167.687H59.2578V172H57.1387V162.006H59.2578V165.923H63.2158V162.006H65.3281V172ZM76.7236 172H74.0303L69.6826 164.439H69.6211C69.7077 165.775 69.751 166.727 69.751 167.297V172H67.8574V162.006H70.5303L74.8711 169.491H74.9189C74.8506 168.192 74.8164 167.274 74.8164 166.736V162.006H76.7236V172ZM87.3809 162.006V168.473C87.3809 169.211 87.2145 169.858 86.8818 170.414C86.5537 170.97 86.0775 171.396 85.4531 171.692C84.8288 171.989 84.0905 172.137 83.2383 172.137C81.9531 172.137 80.9551 171.809 80.2441 171.152C79.5332 170.492 79.1777 169.589 79.1777 168.445V162.006H81.29V168.124C81.29 168.894 81.445 169.459 81.7549 169.819C82.0648 170.179 82.5775 170.359 83.293 170.359C83.9857 170.359 84.487 170.179 84.7969 169.819C85.1113 169.455 85.2686 168.885 85.2686 168.11V162.006H87.3809ZM101.654 172H99.542V167.687H95.584V172H93.4648V162.006H95.584V165.923H99.542V162.006H101.654V172ZM110.302 172L109.577 169.621H105.934L105.209 172H102.926L106.453 161.965H109.044L112.585 172H110.302ZM109.071 167.844C108.401 165.688 108.023 164.469 107.937 164.187C107.854 163.904 107.795 163.681 107.759 163.517C107.608 164.1 107.178 165.542 106.467 167.844H109.071ZM120.364 172H112.927V170.626L117.719 163.756H113.057V162.006H120.234V163.373L115.449 170.25H120.364V172ZM126.188 172L123.782 164.159H123.721C123.807 165.754 123.851 166.818 123.851 167.352V172H121.957V162.006H124.842L127.207 169.648H127.248L129.757 162.006H132.642V172H130.666V167.27C130.666 167.046 130.668 166.789 130.673 166.497C130.682 166.205 130.714 165.431 130.769 164.173H130.707L128.13 172H126.188ZM135.164 172V162.006H137.283V172H135.164ZM143.436 172V162.006H145.555V170.25H149.608V172H143.436ZM157.47 172L156.745 169.621H153.102L152.377 172H150.094L153.621 161.965H156.212L159.753 172H157.47ZM156.239 167.844C155.569 165.688 155.191 164.469 155.104 164.187C155.022 163.904 154.963 163.681 154.927 163.517C154.776 164.1 154.346 165.542 153.635 167.844H156.239ZM167.532 172H160.095V170.626L164.887 163.756H160.225V162.006H167.402V163.373L162.617 170.25H167.532V172ZM177.26 162.006V168.473C177.26 169.211 177.093 169.858 176.761 170.414C176.433 170.97 175.956 171.396 175.332 171.692C174.708 171.989 173.969 172.137 173.117 172.137C171.832 172.137 170.834 171.809 170.123 171.152C169.412 170.492 169.057 169.589 169.057 168.445V162.006H171.169V168.124C171.169 168.894 171.324 169.459 171.634 169.819C171.944 170.179 172.456 170.359 173.172 170.359C173.865 170.359 174.366 170.179 174.676 169.819C174.99 169.455 175.147 168.885 175.147 168.11V162.006H177.26ZM185.825 172L185.101 169.621H181.457L180.732 172H178.449L181.977 161.965H184.567L188.108 172H185.825ZM184.595 167.844C183.925 165.688 183.547 164.469 183.46 164.187C183.378 163.904 183.319 163.681 183.282 163.517C183.132 164.1 182.701 165.542 181.99 167.844H184.595ZM191.492 166.442H192.176C192.846 166.442 193.34 166.331 193.659 166.107C193.978 165.884 194.138 165.533 194.138 165.055C194.138 164.581 193.974 164.243 193.646 164.043C193.322 163.842 192.818 163.742 192.135 163.742H191.492V166.442ZM191.492 168.165V172H189.373V162.006H192.285C193.643 162.006 194.648 162.254 195.3 162.751C195.951 163.243 196.277 163.993 196.277 165C196.277 165.588 196.116 166.112 195.792 166.572C195.468 167.028 195.01 167.386 194.418 167.646C195.922 169.892 196.902 171.344 197.357 172H195.006L192.62 168.165H191.492ZM206.907 166.907C206.907 168.552 206.438 169.812 205.499 170.688C204.565 171.562 203.214 172 201.445 172H198.615V162.006H201.753C203.384 162.006 204.651 162.437 205.554 163.298C206.456 164.159 206.907 165.362 206.907 166.907ZM204.706 166.962C204.706 164.815 203.758 163.742 201.862 163.742H200.734V170.25H201.644C203.685 170.25 204.706 169.154 204.706 166.962ZM208.979 172V162.006H211.098V172H208.979ZM37.5469 191H30.5605V189.53L33.0693 186.994C33.8122 186.233 34.2975 185.707 34.5254 185.415C34.7533 185.119 34.9173 184.845 35.0176 184.595C35.1178 184.344 35.168 184.084 35.168 183.815C35.168 183.414 35.0563 183.116 34.833 182.92C34.6143 182.724 34.3203 182.626 33.9512 182.626C33.5638 182.626 33.1878 182.715 32.8232 182.893C32.4587 183.07 32.0781 183.323 31.6816 183.651L30.5332 182.291C31.0254 181.872 31.4333 181.576 31.7568 181.402C32.0804 181.229 32.4336 181.097 32.8164 181.006C33.1992 180.91 33.6276 180.862 34.1016 180.862C34.7259 180.862 35.2773 180.976 35.7559 181.204C36.2344 181.432 36.6058 181.751 36.8701 182.161C37.1344 182.571 37.2666 183.041 37.2666 183.569C37.2666 184.03 37.1846 184.463 37.0205 184.868C36.861 185.269 36.6104 185.682 36.2686 186.105C35.9313 186.529 35.3343 187.133 34.4775 187.917L33.1924 189.127V189.223H37.5469V191ZM45.4902 186.003C45.4902 187.748 45.2031 189.04 44.6289 189.879C44.0592 190.717 43.1797 191.137 41.9902 191.137C40.8372 191.137 39.9668 190.704 39.3789 189.838C38.7956 188.972 38.5039 187.694 38.5039 186.003C38.5039 184.239 38.7887 182.94 39.3584 182.106C39.9281 181.268 40.8053 180.849 41.9902 180.849C43.1432 180.849 44.0137 181.286 44.6016 182.161C45.194 183.036 45.4902 184.317 45.4902 186.003ZM40.6025 186.003C40.6025 187.229 40.7074 188.108 40.917 188.642C41.1312 189.17 41.4889 189.435 41.9902 189.435C42.4824 189.435 42.8379 189.166 43.0566 188.628C43.2754 188.09 43.3848 187.215 43.3848 186.003C43.3848 184.777 43.2731 183.897 43.0498 183.364C42.8311 182.826 42.4779 182.558 41.9902 182.558C41.4935 182.558 41.138 182.826 40.9238 183.364C40.7096 183.897 40.6025 184.777 40.6025 186.003ZM51.7793 191H49.667V185.217L49.6875 184.267L49.7217 183.228C49.3708 183.578 49.127 183.809 48.9902 183.918L47.8418 184.841L46.8232 183.569L50.043 181.006H51.7793V191ZM54.4863 186.755C54.4863 184.777 54.9033 183.305 55.7373 182.339C56.5758 181.373 57.8291 180.89 59.4971 180.89C60.0667 180.89 60.5133 180.924 60.8369 180.992V182.681C60.4313 182.59 60.0303 182.544 59.6338 182.544C58.9092 182.544 58.3167 182.653 57.8564 182.872C57.4007 183.091 57.0589 183.414 56.8311 183.843C56.6032 184.271 56.4688 184.88 56.4277 185.668H56.5166C56.9678 184.893 57.6901 184.506 58.6836 184.506C59.5768 184.506 60.2764 184.786 60.7822 185.347C61.2881 185.907 61.541 186.682 61.541 187.671C61.541 188.737 61.2402 189.583 60.6387 190.207C60.0371 190.827 59.2031 191.137 58.1367 191.137C57.3984 191.137 56.7536 190.966 56.2021 190.624C55.6553 190.282 55.2314 189.783 54.9307 189.127C54.6344 188.471 54.4863 187.68 54.4863 186.755ZM58.0957 189.448C58.5469 189.448 58.8932 189.298 59.1348 188.997C59.3763 188.692 59.4971 188.259 59.4971 187.698C59.4971 187.211 59.3831 186.828 59.1553 186.55C58.932 186.267 58.5924 186.126 58.1367 186.126C57.7083 186.126 57.3415 186.265 57.0361 186.543C56.7354 186.821 56.585 187.145 56.585 187.514C56.585 188.056 56.7262 188.514 57.0088 188.888C57.2959 189.261 57.6582 189.448 58.0957 189.448ZM71.3438 181.006L67.6182 191H65.7246L69.4502 181.006H71.3438ZM82.5957 191H75.6094V189.53L78.1182 186.994C78.861 186.233 79.3464 185.707 79.5742 185.415C79.8021 185.119 79.9661 184.845 80.0664 184.595C80.1667 184.344 80.2168 184.084 80.2168 183.815C80.2168 183.414 80.1051 183.116 79.8818 182.92C79.6631 182.724 79.3691 182.626 79 182.626C78.6126 182.626 78.2367 182.715 77.8721 182.893C77.5075 183.07 77.127 183.323 76.7305 183.651L75.582 182.291C76.0742 181.872 76.4821 181.576 76.8057 181.402C77.1292 181.229 77.4824 181.097 77.8652 181.006C78.248 180.91 78.6764 180.862 79.1504 180.862C79.7747 180.862 80.3262 180.976 80.8047 181.204C81.2832 181.432 81.6546 181.751 81.9189 182.161C82.1833 182.571 82.3154 183.041 82.3154 183.569C82.3154 184.03 82.2334 184.463 82.0693 184.868C81.9098 185.269 81.6592 185.682 81.3174 186.105C80.9801 186.529 80.3831 187.133 79.5264 187.917L78.2412 189.127V189.223H82.5957V191ZM90.5391 186.003C90.5391 187.748 90.252 189.04 89.6777 189.879C89.1081 190.717 88.2285 191.137 87.0391 191.137C85.8861 191.137 85.0156 190.704 84.4277 189.838C83.8444 188.972 83.5527 187.694 83.5527 186.003C83.5527 184.239 83.8376 182.94 84.4072 182.106C84.9769 181.268 85.8542 180.849 87.0391 180.849C88.1921 180.849 89.0625 181.286 89.6504 182.161C90.2428 183.036 90.5391 184.317 90.5391 186.003ZM85.6514 186.003C85.6514 187.229 85.7562 188.108 85.9658 188.642C86.18 189.17 86.5378 189.435 87.0391 189.435C87.5312 189.435 87.8867 189.166 88.1055 188.628C88.3242 188.09 88.4336 187.215 88.4336 186.003C88.4336 184.777 88.3219 183.897 88.0986 183.364C87.8799 182.826 87.5267 182.558 87.0391 182.558C86.5423 182.558 86.1868 182.826 85.9727 183.364C85.7585 183.897 85.6514 184.777 85.6514 186.003ZM96.8281 191H94.7158V185.217L94.7363 184.267L94.7705 183.228C94.4196 183.578 94.1758 183.809 94.0391 183.918L92.8906 184.841L91.8721 183.569L95.0918 181.006H96.8281V191ZM106.549 185.271C106.549 187.24 106.134 188.71 105.305 189.681C104.475 190.651 103.22 191.137 101.538 191.137C100.946 191.137 100.497 191.105 100.191 191.041V189.346C100.574 189.441 100.975 189.489 101.395 189.489C102.101 189.489 102.682 189.387 103.138 189.182C103.593 188.972 103.942 188.646 104.184 188.204C104.425 187.757 104.564 187.145 104.601 186.365H104.519C104.254 186.794 103.949 187.094 103.603 187.268C103.256 187.441 102.823 187.527 102.304 187.527C101.433 187.527 100.747 187.249 100.246 186.693C99.7448 186.133 99.4941 185.356 99.4941 184.362C99.4941 183.291 99.7972 182.446 100.403 181.826C101.014 181.202 101.843 180.89 102.892 180.89C103.63 180.89 104.275 181.063 104.826 181.409C105.382 181.756 105.808 182.259 106.104 182.92C106.401 183.576 106.549 184.36 106.549 185.271ZM102.933 182.585C102.495 182.585 102.153 182.735 101.907 183.036C101.661 183.337 101.538 183.77 101.538 184.335C101.538 184.818 101.65 185.201 101.873 185.483C102.096 185.766 102.436 185.907 102.892 185.907C103.32 185.907 103.687 185.768 103.992 185.49C104.298 185.208 104.45 184.884 104.45 184.52C104.45 183.977 104.307 183.519 104.02 183.146C103.737 182.772 103.375 182.585 102.933 182.585ZM35.4893 210L33.083 202.159H33.0215C33.1081 203.754 33.1514 204.818 33.1514 205.352V210H31.2578V200.006H34.1426L36.5078 207.648H36.5488L39.0576 200.006H41.9424V210H39.9668V205.27C39.9668 205.046 39.9691 204.789 39.9736 204.497C39.9827 204.205 40.0146 203.431 40.0693 202.173H40.0078L37.4307 210H35.4893ZM44.4648 210V200.006H46.584V210H44.4648ZM51.2188 204.709H51.916C52.5677 204.709 53.0553 204.581 53.3789 204.326C53.7025 204.066 53.8643 203.69 53.8643 203.198C53.8643 202.701 53.7275 202.335 53.4541 202.098C53.1852 201.861 52.7614 201.742 52.1826 201.742H51.2188V204.709ZM56.0039 203.123C56.0039 204.199 55.6667 205.021 54.9922 205.591C54.3223 206.16 53.3675 206.445 52.1279 206.445H51.2188V210H49.0996V200.006H52.292C53.5042 200.006 54.4248 200.268 55.0537 200.792C55.6872 201.312 56.0039 202.089 56.0039 203.123ZM64.0088 210L63.2842 207.621H59.6406L58.916 210H56.6328L60.1602 199.965H62.751L66.292 210H64.0088ZM62.7783 205.844C62.1084 203.688 61.7301 202.469 61.6436 202.187C61.5615 201.904 61.5023 201.681 61.4658 201.517C61.3154 202.1 60.8848 203.542 60.1738 205.844H62.7783Z" fill="white"/>
<path d="M128.297 94H125.891L123.272 89.7891L122.377 90.4316V94H120.258V84.0059H122.377V88.5791L123.211 87.4033L125.918 84.0059H128.27L124.783 88.4287L128.297 94ZM134.244 94L133.841 92.9609H133.786C133.435 93.403 133.073 93.7106 132.699 93.8838C132.33 94.0524 131.847 94.1367 131.25 94.1367C130.516 94.1367 129.938 93.9271 129.514 93.5078C129.094 93.0885 128.885 92.4915 128.885 91.7168C128.885 90.9056 129.167 90.3086 129.732 89.9258C130.302 89.5384 131.159 89.3242 132.303 89.2832L133.629 89.2422V88.9072C133.629 88.1325 133.232 87.7451 132.439 87.7451C131.829 87.7451 131.111 87.9297 130.286 88.2988L129.596 86.8906C130.475 86.4303 131.451 86.2002 132.521 86.2002C133.547 86.2002 134.333 86.4235 134.88 86.8701C135.427 87.3167 135.7 87.9958 135.7 88.9072V94H134.244ZM133.629 90.459L132.822 90.4863C132.216 90.5046 131.765 90.6139 131.469 90.8145C131.173 91.015 131.024 91.3203 131.024 91.7305C131.024 92.3184 131.362 92.6123 132.036 92.6123C132.519 92.6123 132.904 92.4733 133.191 92.1953C133.483 91.9173 133.629 91.5482 133.629 91.0879V90.459ZM142.119 86.2139C142.402 86.2139 142.636 86.2344 142.823 86.2754L142.666 88.2305C142.497 88.1849 142.292 88.1621 142.051 88.1621C141.385 88.1621 140.866 88.333 140.492 88.6748C140.123 89.0166 139.938 89.4951 139.938 90.1104V94H137.854V86.3574H139.433L139.74 87.6426H139.843C140.08 87.2142 140.399 86.8701 140.8 86.6104C141.205 86.346 141.645 86.2139 142.119 86.2139ZM147.431 92.4756C147.795 92.4756 148.233 92.3958 148.743 92.2363V93.7881C148.224 94.0205 147.586 94.1367 146.829 94.1367C145.995 94.1367 145.387 93.9271 145.004 93.5078C144.626 93.084 144.437 92.4505 144.437 91.6074V87.9229H143.438V87.041L144.587 86.3438L145.188 84.7305H146.521V86.3574H148.661V87.9229H146.521V91.6074C146.521 91.9036 146.604 92.1224 146.768 92.2637C146.936 92.4049 147.157 92.4756 147.431 92.4756ZM155.709 94L155.429 93.0225H155.319C155.096 93.3779 154.779 93.6536 154.369 93.8496C153.959 94.041 153.492 94.1367 152.968 94.1367C152.07 94.1367 151.393 93.8975 150.938 93.4189C150.482 92.9359 150.254 92.2432 150.254 91.3408V86.3574H152.339V90.8213C152.339 91.3727 152.437 91.7874 152.633 92.0654C152.829 92.3389 153.141 92.4756 153.569 92.4756C154.153 92.4756 154.574 92.2819 154.834 91.8945C155.094 91.5026 155.224 90.8555 155.224 89.9531V86.3574H157.309V94H155.709ZM163.297 94V84.0059H165.416V94H163.297ZM170.188 94.1367C169.29 94.1367 168.583 93.7881 168.068 93.0908C167.558 92.3936 167.303 91.4274 167.303 90.1924C167.303 88.9391 167.562 87.9639 168.082 87.2666C168.606 86.5648 169.326 86.2139 170.242 86.2139C171.204 86.2139 171.938 86.5876 172.443 87.335H172.512C172.407 86.7653 172.354 86.2572 172.354 85.8105V83.3633H174.446V94H172.847L172.443 93.0088H172.354C171.881 93.7607 171.158 94.1367 170.188 94.1367ZM170.919 92.4756C171.452 92.4756 171.842 92.3206 172.088 92.0107C172.339 91.7008 172.475 91.1745 172.498 90.4316V90.2061C172.498 89.3857 172.37 88.7979 172.115 88.4424C171.865 88.0869 171.454 87.9092 170.885 87.9092C170.42 87.9092 170.058 88.1074 169.798 88.5039C169.543 88.8958 169.415 89.4678 169.415 90.2197C169.415 90.9717 169.545 91.5368 169.805 91.915C170.064 92.2887 170.436 92.4756 170.919 92.4756ZM179.792 87.6973C179.35 87.6973 179.004 87.8385 178.753 88.1211C178.502 88.3991 178.359 88.7956 178.322 89.3105H181.248C181.239 88.7956 181.104 88.3991 180.845 88.1211C180.585 87.8385 180.234 87.6973 179.792 87.6973ZM180.086 94.1367C178.855 94.1367 177.894 93.7972 177.201 93.1182C176.508 92.4391 176.162 91.4775 176.162 90.2334C176.162 88.9528 176.481 87.9639 177.119 87.2666C177.762 86.5648 178.648 86.2139 179.778 86.2139C180.858 86.2139 181.699 86.5215 182.301 87.1367C182.902 87.752 183.203 88.6019 183.203 89.6865V90.6982H178.274C178.297 91.2907 178.473 91.7533 178.801 92.0859C179.129 92.4186 179.589 92.585 180.182 92.585C180.642 92.585 181.077 92.5371 181.487 92.4414C181.897 92.3457 182.326 92.193 182.772 91.9834V93.5967C182.408 93.779 182.018 93.9134 181.604 94C181.189 94.0911 180.683 94.1367 180.086 94.1367ZM191.953 94H189.868V89.5361C189.868 88.9847 189.77 88.5723 189.574 88.2988C189.378 88.0208 189.066 87.8818 188.638 87.8818C188.054 87.8818 187.633 88.0778 187.373 88.4697C187.113 88.8571 186.983 89.502 186.983 90.4043V94H184.898V86.3574H186.491L186.771 87.335H186.888C187.12 86.9658 187.439 86.6878 187.845 86.501C188.255 86.3096 188.72 86.2139 189.239 86.2139C190.128 86.2139 190.802 86.4554 191.263 86.9385C191.723 87.417 191.953 88.1097 191.953 89.0166V94ZM197.319 92.4756C197.684 92.4756 198.121 92.3958 198.632 92.2363V93.7881C198.112 94.0205 197.474 94.1367 196.718 94.1367C195.884 94.1367 195.275 93.9271 194.893 93.5078C194.514 93.084 194.325 92.4505 194.325 91.6074V87.9229H193.327V87.041L194.476 86.3438L195.077 84.7305H196.41V86.3574H198.55V87.9229H196.41V91.6074C196.41 91.9036 196.492 92.1224 196.656 92.2637C196.825 92.4049 197.046 92.4756 197.319 92.4756ZM200.095 84.3818C200.095 83.7028 200.473 83.3633 201.229 83.3633C201.986 83.3633 202.364 83.7028 202.364 84.3818C202.364 84.7054 202.269 84.9583 202.077 85.1406C201.89 85.3184 201.608 85.4072 201.229 85.4072C200.473 85.4072 200.095 85.0654 200.095 84.3818ZM202.269 94H200.184V86.3574H202.269V94ZM207.683 92.4756C208.047 92.4756 208.485 92.3958 208.995 92.2363V93.7881C208.476 94.0205 207.838 94.1367 207.081 94.1367C206.247 94.1367 205.639 93.9271 205.256 93.5078C204.878 93.084 204.688 92.4505 204.688 91.6074V87.9229H203.69V87.041L204.839 86.3438L205.44 84.7305H206.773V86.3574H208.913V87.9229H206.773V91.6074C206.773 91.9036 206.855 92.1224 207.02 92.2637C207.188 92.4049 207.409 92.4756 207.683 92.4756ZM215.4 94L214.997 92.9609H214.942C214.591 93.403 214.229 93.7106 213.855 93.8838C213.486 94.0524 213.003 94.1367 212.406 94.1367C211.673 94.1367 211.094 93.9271 210.67 93.5078C210.251 93.0885 210.041 92.4915 210.041 91.7168C210.041 90.9056 210.324 90.3086 210.889 89.9258C211.458 89.5384 212.315 89.3242 213.459 89.2832L214.785 89.2422V88.9072C214.785 88.1325 214.389 87.7451 213.596 87.7451C212.985 87.7451 212.267 87.9297 211.442 88.2988L210.752 86.8906C211.632 86.4303 212.607 86.2002 213.678 86.2002C214.703 86.2002 215.489 86.4235 216.036 86.8701C216.583 87.3167 216.856 87.9958 216.856 88.9072V94H215.4ZM214.785 90.459L213.979 90.4863C213.372 90.5046 212.921 90.6139 212.625 90.8145C212.329 91.015 212.181 91.3203 212.181 91.7305C212.181 92.3184 212.518 92.6123 213.192 92.6123C213.675 92.6123 214.061 92.4733 214.348 92.1953C214.639 91.9173 214.785 91.5482 214.785 91.0879V90.459ZM224.342 91.7305C224.342 92.5143 224.068 93.1113 223.521 93.5215C222.979 93.9316 222.166 94.1367 221.081 94.1367C220.525 94.1367 220.051 94.098 219.659 94.0205C219.267 93.9476 218.9 93.8382 218.559 93.6924V91.9697C218.946 92.152 219.381 92.3047 219.864 92.4277C220.352 92.5508 220.78 92.6123 221.149 92.6123C221.906 92.6123 222.284 92.3936 222.284 91.9561C222.284 91.792 222.234 91.6598 222.134 91.5596C222.034 91.4548 221.86 91.3385 221.614 91.2109C221.368 91.0788 221.04 90.9261 220.63 90.7529C220.042 90.5068 219.609 90.279 219.331 90.0693C219.058 89.8597 218.857 89.6204 218.729 89.3516C218.606 89.0781 218.545 88.7432 218.545 88.3467C218.545 87.6676 218.807 87.1436 219.331 86.7744C219.86 86.4007 220.607 86.2139 221.573 86.2139C222.494 86.2139 223.389 86.4144 224.26 86.8154L223.631 88.3193C223.248 88.1553 222.89 88.0208 222.558 87.916C222.225 87.8112 221.885 87.7588 221.539 87.7588C220.924 87.7588 220.616 87.9251 220.616 88.2578C220.616 88.4447 220.714 88.6064 220.91 88.7432C221.111 88.8799 221.546 89.0827 222.216 89.3516C222.813 89.5931 223.25 89.8187 223.528 90.0283C223.806 90.238 224.011 90.4795 224.144 90.7529C224.276 91.0264 224.342 91.3522 224.342 91.7305ZM124.489 113L122.083 105.159H122.021C122.108 106.754 122.151 107.818 122.151 108.352V113H120.258V103.006H123.143L125.508 110.648H125.549L128.058 103.006H130.942V113H128.967V108.27C128.967 108.046 128.969 107.789 128.974 107.497C128.983 107.205 129.015 106.431 129.069 105.173H129.008L126.431 113H124.489ZM138.154 113L137.751 111.961H137.696C137.345 112.403 136.983 112.711 136.609 112.884C136.24 113.052 135.757 113.137 135.16 113.137C134.426 113.137 133.848 112.927 133.424 112.508C133.005 112.089 132.795 111.492 132.795 110.717C132.795 109.906 133.077 109.309 133.643 108.926C134.212 108.538 135.069 108.324 136.213 108.283L137.539 108.242V107.907C137.539 107.132 137.143 106.745 136.35 106.745C135.739 106.745 135.021 106.93 134.196 107.299L133.506 105.891C134.385 105.43 135.361 105.2 136.432 105.2C137.457 105.2 138.243 105.424 138.79 105.87C139.337 106.317 139.61 106.996 139.61 107.907V113H138.154ZM137.539 109.459L136.732 109.486C136.126 109.505 135.675 109.614 135.379 109.814C135.083 110.015 134.935 110.32 134.935 110.73C134.935 111.318 135.272 111.612 135.946 111.612C136.429 111.612 136.814 111.473 137.102 111.195C137.393 110.917 137.539 110.548 137.539 110.088V109.459ZM148.818 113H146.733V108.536C146.733 107.433 146.323 106.882 145.503 106.882C144.92 106.882 144.498 107.08 144.238 107.477C143.979 107.873 143.849 108.516 143.849 109.404V113H141.764V102.363H143.849V104.53C143.849 104.699 143.833 105.095 143.801 105.72L143.753 106.335H143.862C144.327 105.588 145.065 105.214 146.077 105.214C146.975 105.214 147.656 105.455 148.121 105.938C148.586 106.422 148.818 107.114 148.818 108.017V113ZM155.818 113L155.415 111.961H155.36C155.009 112.403 154.647 112.711 154.273 112.884C153.904 113.052 153.421 113.137 152.824 113.137C152.09 113.137 151.512 112.927 151.088 112.508C150.669 112.089 150.459 111.492 150.459 110.717C150.459 109.906 150.742 109.309 151.307 108.926C151.876 108.538 152.733 108.324 153.877 108.283L155.203 108.242V107.907C155.203 107.132 154.807 106.745 154.014 106.745C153.403 106.745 152.685 106.93 151.86 107.299L151.17 105.891C152.049 105.43 153.025 105.2 154.096 105.2C155.121 105.2 155.907 105.424 156.454 105.87C157.001 106.317 157.274 106.996 157.274 107.907V113H155.818ZM155.203 109.459L154.396 109.486C153.79 109.505 153.339 109.614 153.043 109.814C152.747 110.015 152.599 110.32 152.599 110.73C152.599 111.318 152.936 111.612 153.61 111.612C154.093 111.612 154.479 111.473 154.766 111.195C155.057 110.917 155.203 110.548 155.203 110.088V109.459ZM164.76 110.73C164.76 111.514 164.486 112.111 163.939 112.521C163.397 112.932 162.584 113.137 161.499 113.137C160.943 113.137 160.469 113.098 160.077 113.021C159.685 112.948 159.318 112.838 158.977 112.692V110.97C159.364 111.152 159.799 111.305 160.282 111.428C160.77 111.551 161.198 111.612 161.567 111.612C162.324 111.612 162.702 111.394 162.702 110.956C162.702 110.792 162.652 110.66 162.552 110.56C162.451 110.455 162.278 110.339 162.032 110.211C161.786 110.079 161.458 109.926 161.048 109.753C160.46 109.507 160.027 109.279 159.749 109.069C159.476 108.86 159.275 108.62 159.147 108.352C159.024 108.078 158.963 107.743 158.963 107.347C158.963 106.668 159.225 106.144 159.749 105.774C160.278 105.401 161.025 105.214 161.991 105.214C162.912 105.214 163.807 105.414 164.678 105.815L164.049 107.319C163.666 107.155 163.308 107.021 162.976 106.916C162.643 106.811 162.303 106.759 161.957 106.759C161.342 106.759 161.034 106.925 161.034 107.258C161.034 107.445 161.132 107.606 161.328 107.743C161.529 107.88 161.964 108.083 162.634 108.352C163.231 108.593 163.668 108.819 163.946 109.028C164.224 109.238 164.429 109.479 164.562 109.753C164.694 110.026 164.76 110.352 164.76 110.73ZM166.298 103.382C166.298 102.703 166.676 102.363 167.433 102.363C168.189 102.363 168.567 102.703 168.567 103.382C168.567 103.705 168.472 103.958 168.28 104.141C168.093 104.318 167.811 104.407 167.433 104.407C166.676 104.407 166.298 104.065 166.298 103.382ZM168.472 113H166.387V105.357H168.472V113ZM175.998 110.73C175.998 111.514 175.725 112.111 175.178 112.521C174.635 112.932 173.822 113.137 172.737 113.137C172.181 113.137 171.707 113.098 171.315 113.021C170.924 112.948 170.557 112.838 170.215 112.692V110.97C170.602 111.152 171.037 111.305 171.521 111.428C172.008 111.551 172.437 111.612 172.806 111.612C173.562 111.612 173.94 111.394 173.94 110.956C173.94 110.792 173.89 110.66 173.79 110.56C173.69 110.455 173.517 110.339 173.271 110.211C173.024 110.079 172.696 109.926 172.286 109.753C171.698 109.507 171.265 109.279 170.987 109.069C170.714 108.86 170.513 108.62 170.386 108.352C170.263 108.078 170.201 107.743 170.201 107.347C170.201 106.668 170.463 106.144 170.987 105.774C171.516 105.401 172.263 105.214 173.229 105.214C174.15 105.214 175.046 105.414 175.916 105.815L175.287 107.319C174.904 107.155 174.547 107.021 174.214 106.916C173.881 106.811 173.542 106.759 173.195 106.759C172.58 106.759 172.272 106.925 172.272 107.258C172.272 107.445 172.37 107.606 172.566 107.743C172.767 107.88 173.202 108.083 173.872 108.352C174.469 108.593 174.907 108.819 175.185 109.028C175.463 109.238 175.668 109.479 175.8 109.753C175.932 110.026 175.998 110.352 175.998 110.73ZM183.907 113L183.319 110.327L182.526 106.95H182.479L181.084 113H178.842L176.668 105.357H178.746L179.628 108.741C179.769 109.347 179.913 110.184 180.059 111.25H180.1C180.118 110.904 180.198 110.354 180.339 109.603L180.448 109.021L181.392 105.357H183.688L184.584 109.021C184.602 109.122 184.63 109.27 184.666 109.466C184.707 109.662 184.746 109.871 184.782 110.095C184.819 110.313 184.851 110.53 184.878 110.744C184.91 110.954 184.928 111.122 184.933 111.25H184.974C185.015 110.922 185.088 110.473 185.192 109.903C185.297 109.329 185.372 108.942 185.418 108.741L186.334 105.357H188.378L186.177 113H183.907ZM194.469 113L194.065 111.961H194.011C193.66 112.403 193.298 112.711 192.924 112.884C192.555 113.052 192.072 113.137 191.475 113.137C190.741 113.137 190.162 112.927 189.738 112.508C189.319 112.089 189.109 111.492 189.109 110.717C189.109 109.906 189.392 109.309 189.957 108.926C190.527 108.538 191.383 108.324 192.527 108.283L193.854 108.242V107.907C193.854 107.132 193.457 106.745 192.664 106.745C192.053 106.745 191.336 106.93 190.511 107.299L189.82 105.891C190.7 105.43 191.675 105.2 192.746 105.2C193.771 105.2 194.558 105.424 195.104 105.87C195.651 106.317 195.925 106.996 195.925 107.907V113H194.469ZM193.854 109.459L193.047 109.486C192.441 109.505 191.99 109.614 191.693 109.814C191.397 110.015 191.249 110.32 191.249 110.73C191.249 111.318 191.586 111.612 192.261 111.612C192.744 111.612 193.129 111.473 193.416 111.195C193.708 110.917 193.854 110.548 193.854 110.088V109.459Z" fill="#A4A4A4"/>
<defs>
<filter id="filter0_d" x="0" y="0" width="286" height="234" filterUnits="userSpaceOnUse" color-interpolation-filters="sRGB">
<feFlood flood-opacity="0" result="BackgroundImageFix"/>
<feColorMatrix in="SourceAlpha" type="matrix" values="0 0 0 0 0 0 0 0 0 0 0 0 0 0 0 0 0 0 127 0"/>
<feOffset dy="4"/>
<feGaussianBlur stdDeviation="2"/>
<feColorMatrix type="matrix" values="0 0 0 0 0 0 0 0 0 0 0 0 0 0 0 0 0 0 0.25 0"/>
<feBlend mode="normal" in2="BackgroundImageFix" result="effect1_dropShadow"/>
<feBlend mode="normal" in="SourceGraphic" in2="effect1_dropShadow" result="shape"/>
</filter>
<filter id="filter1_d" x="0" y="140" width="286" height="94" filterUnits="userSpaceOnUse" color-interpolation-filters="sRGB">
<feFlood flood-opacity="0" result="BackgroundImageFix"/>
<feColorMatrix in="SourceAlpha" type="matrix" values="0 0 0 0 0 0 0 0 0 0 0 0 0 0 0 0 0 0 127 0"/>
<feOffset dy="4"/>
<feGaussianBlur stdDeviation="2"/>
<feColorMatrix type="matrix" values="0 0 0 0 0 0 0 0 0 0 0 0 0 0 0 0 0 0 0.25 0"/>
<feBlend mode="normal" in2="BackgroundImageFix" result="effect1_dropShadow"/>
<feBlend mode="normal" in="SourceGraphic" in2="effect1_dropShadow" result="shape"/>
</filter>
</defs>
</svg>
